# This file may be used to create an environment using:
# $ conda create --name <env> --file <this file>
# platform: linux-64
_libgcc_mutex=0.1=main
blas=1.0=mkl
brotlipy=0.7.0=py38h27cfd23_1003
ca-certificates=2020.12.8=h06a4308_0
certifi=2020.12.5=py38h06a4308_0
cffi=1.14.3=py38h261ae71_2
chardet=3.0.4=py38h06a4308_1003
click=7.1.2=py_0
conda=4.9.2=py38h06a4308_0
conda-package-handling=1.7.2=py38h03888b9_0
cryptography=3.2.1=py38h3c74f83_1
flask=1.1.2=py_0
idna=2.10=py_0
intel-openmp=2020.2=254
itsdangerous=1.1.0=py_0
jinja2=2.11.2=py_0
joblib=1.0.0=pyhd3eb1b0_0
ld_impl_linux-64=2.33.1=h53a641e_7
libedit=3.1.20191231=h14c3975_1
libffi=3.3=he6710b0_2
libgcc-ng=9.1.0=hdf63c60_0
libgfortran-ng=7.3.0=hdf63c60_0
libstdcxx-ng=9.1.0=hdf63c60_0
lightgbm=3.1.1=py38h2531618_0
markupsafe=1.1.1=py38h7b6447c_0
mkl=2020.2=256
mkl-service=2.3.0=py38he904b0f_0
mkl_fft=1.2.0=py38h23d657b_0
mkl_random=1.1.1=py38h0573a6f_0
ncurses=6.2=he6710b0_1
numpy=1.19.2=py38h54aff64_0
numpy-base=1.19.2=py38hfa32c7d_0
openssl=1.1.1i=h27cfd23_0
pandas=1.2.0=py38ha9443f7_0
pip=20.2.4=py38h06a4308_0
pycosat=0.6.3=py38h7b6447c_1
pycparser=2.20=py_2
pyopenssl=19.1.0=pyhd3eb1b0_1
pysocks=1.7.1=py38h06a4308_0
python=3.8.5=h7579374_1
python-dateutil=2.8.1=py_0
pytz=2020.5=pyhd3eb1b0_0
readline=8.0=h7b6447c_0
requests=2.24.0=py_0
ruamel_yaml=0.15.87=py38h7b6447c_1
scikit-learn=0.23.2=py38h0573a6f_0
scipy=1.5.2=py38h0b6359f_0
setuptools=50.3.1=py38h06a4308_1
six=1.15.0=py38h06a4308_0
sqlite=3.33.0=h62c20be_0
threadpoolctl=2.1.0=pyh5ca1d4c_0
tk=8.6.10=hbc83047_0
tqdm=4.51.0=pyhd3eb1b0_0
urllib3=1.25.11=py_0
werkzeug=1.0.1=py_0
wheel=0.35.1=pyhd3eb1b0_0
xz=5.2.5=h7b6447c_0
yaml=0.2.5=h7b6447c_0
zlib=1.2.11=h7b6447c_3